<?xml  version= "1.0" ?>

<robot  xmlns:xacro= "http://ros.org/wiki/xacro" name= "turtlebot3_wheel" >
  <xacro:macro name= "turtlebot3_wheel" params= "alignment *origin" >
    <link name= "wheel_${alignment}_link" >
      <visual>
        <origin xyz= "0 0 0" rpy= "${M_PI*0.5} 0 0" />
        <geometry>
          <mesh filename= "package://tb3_description/meshes/wheels/${alignment}_tire.stl" scale="0.001 0.001 0.001" />
        </geometry>
        <material name= "orange" />
      </visual>
      <inertial>
        <origin xyz= "0 0 0" />
        <mass value= "0.01" />
        <inertia ixx= "0.0000029925" ixy= "0.0" ixz= "0.0" iyy= "0.0000029925" iyz= "0.0" izz= "0.000005445" />
      </inertial>
      <collision>
        <origin rpy= "0 0 0" xyz= "0 0 0" />
        <geometry>
          <cylinder length= "0.018" radius= "0.033" />
        </geometry>
      </collision>
    </link>
    <joint name= "wheel_${alignment}_joint" type= "continuous" >
      <parent link= "base_link" />
      <child link= "wheel_${alignment}_link" />
      <xacro:insert_block name= "origin" />
      <axis xyz= "0 0 1" />
    </joint>
    <gazebo reference= "wheel_${alignment}_link" >
      <mu1 value= "10.0" />
      <mu2 value= "10.0" />
      <kp value= "500000.0"  />
      <kd value= "10.0"  />
      <minDepth> 0.001 </minDepth>
      <maxVel> 0.1 </maxVel>
      <fdir1> 1 0 0 </fdir1>
      <material> Gazebo/Orange </material>
    </gazebo>
  </xacro:macro>
</robot>
